{
	"content": [
		{
			"id": "369f6e47-8c1f-4675-9a4b-810f06940270",
			"createDate": "2016-10-11 14:39:18",
			"modifyDate": "2016-10-11 14:39:18",
			"status": "normal",
			"violateType": null,
			"title": null,
			"content": "qqq",
			"url": null,
			"member": {
				"id": "dd459809-cf00-4b71-bb6c-4c510172b738",
				"createDate": "2016-10-11 08:12:47",
				"modifyDate": "2016-11-22 10:51:30",
				"password": "dc483e80a7a0bd9ef71d8cf973673924",
				"nickName": "undefined",
				"avatar": "http://fjlonge.oss-cn-hangzhou.aliyuncs.com/upload/leProperty/image/201610/3738b1ef-85f1-48c2-bf3c-6cb3d9c59d28.jpg",
				"sex": "female",
				"birthday": "1990-01-01",
				"phone": "13859002783",
				"name": "$*xhf",
				"role": "relatives",
				"loginTime": null,
				"system": null,
				"auth": null,
				"wechatId": null,
				"machineCode": "77bd0d3ff31f55bd0eb1c93539ccacdf",
				"room": {
					"id": "1",
					"createDate": "2016-09-06 09:07:47",
					"modifyDate": "2016-11-14 10:23:19",
					"num": "66",
					"code": "wuye",
					"name": "物业中心",
					"area": null,
					"elevator": "t2",
					"buildName": "物业中心",
					"communityName": "伊顿公馆"
				},
				"email": null,
				"ryToken": "fBUEiojj5U4ux4Y9D//XkyhkyD+1Upp/sh64gpFkOYAdfVwtKaBeyiQ0/4DB/diqqY5k6l3dVSeG6vfHj0L9UzgdMyDYrsM0W+nijGLzcVftDNUWXnH1CfDEb8Gu1uNj0u2IhZx35rc=",
				"roomName": "物业中心",
				"communityName": "伊顿公馆"
			},
			"headPhoto": "http://fjlonge.oss-cn-hangzhou.aliyuncs.com/upload/leProperty/image/201610/d4108ca2-3f98-440a-8edb-e4557aec6ea6.jpg",
			"nickName": "undefined",
			"userGroup": "householder",
			"likeNum": 0,
			"commentNum": 0,
			"complainNum": 0,
			"like": true,
			"comment": true,
			"feedTopic": {
				"id": "78d1a758-52df-4609-921d-de4fcc43be73",
				"createDate": "2016-10-09 17:03:18",
				"modifyDate": "2016-10-09 17:03:18",
				"type": "normal",
				"name": "请客吃饭",
				"style": "吃饭",
				"status": "show",
				"community": {
					"id": "1",
					"createDate": "2016-08-10 10:46:22",
					"modifyDate": "2016-08-10 10:46:24",
					"name": "伊顿公馆",
					"propertyName": "茂基物业"
				},
				"communityName": "伊顿公馆"
			},
			"isTop": null,
			"feedImgs": [
				{
					"id": "c695a942-24c0-4a10-9bc3-bedc74687254",
					"createDate": "2016-10-11 14:39:18",
					"modifyDate": "2016-10-11 14:39:18"
				}, {
					"id": "23cd6e1f-1624-4546-b09e-7b21e8d39651",
					"createDate": "2016-10-11 14:39:18",
					"modifyDate": "2016-10-11 14:39:18"
				}
			],
			"communityName": "伊顿公馆",
			"feedTopicName": "请客吃饭"
		}, {
			"id": "66543562-d353-4489-94e8-9127c716a44d",
			"createDate": "2016-10-11 14:25:29",
			"modifyDate": "2016-10-11 14:25:29",
			"status": "normal",
			"violateType": null,
			"title": null,
			"content": "undefined",
			"url": null,
			"member": {
				"id": "dd459809-cf00-4b71-bb6c-4c510172b738",
				"createDate": "2016-10-11 08:12:47",
				"modifyDate": "2016-11-22 10:51:30",
				"password": "dc483e80a7a0bd9ef71d8cf973673924",
				"nickName": "undefined",
				"avatar": "http://fjlonge.oss-cn-hangzhou.aliyuncs.com/upload/leProperty/image/201610/3738b1ef-85f1-48c2-bf3c-6cb3d9c59d28.jpg",
				"sex": "female",
				"birthday": "1990-01-01",
				"phone": "13859002783",
				"name": "$*xhf",
				"role": "relatives",
				"loginTime": null,
				"system": null,
				"auth": null,
				"wechatId": null,
				"machineCode": "77bd0d3ff31f55bd0eb1c93539ccacdf",
				"room": {
					"id": "1",
					"createDate": "2016-09-06 09:07:47",
					"modifyDate": "2016-11-14 10:23:19",
					"num": "66",
					"code": "wuye",
					"name": "物业中心",
					"area": null,
					"elevator": "t2",
					"buildName": "物业中心",
					"communityName": "伊顿公馆"
				},
				"email": null,
				"ryToken": "fBUEiojj5U4ux4Y9D//XkyhkyD+1Upp/sh64gpFkOYAdfVwtKaBeyiQ0/4DB/diqqY5k6l3dVSeG6vfHj0L9UzgdMyDYrsM0W+nijGLzcVftDNUWXnH1CfDEb8Gu1uNj0u2IhZx35rc=",
				"roomName": "物业中心",
				"communityName": "伊顿公馆"
			},
			"headPhoto": "http://fjlonge.oss-cn-hangzhou.aliyuncs.com/upload/leProperty/image/201610/d4108ca2-3f98-440a-8edb-e4557aec6ea6.jpg",
			"nickName": "undefined",
			"userGroup": "householder",
			"likeNum": 0,
			"commentNum": 0,
			"complainNum": 0,
			"like": true,
			"comment": true,
			"feedTopic": {
				"id": "78d1a758-52df-4609-921d-de4fcc43be73",
				"createDate": "2016-10-09 17:03:18",
				"modifyDate": "2016-10-09 17:03:18",
				"type": "normal",
				"name": "请客吃饭",
				"style": "吃饭",
				"status": "show",
				"community": {
					"id": "1",
					"createDate": "2016-08-10 10:46:22",
					"modifyDate": "2016-08-10 10:46:24",
					"name": "伊顿公馆",
					"propertyName": "茂基物业"
				},
				"communityName": "伊顿公馆"
			},
			"isTop": null,
			"feedImgs": [
				{
					"id": "20c4788e-4249-4e11-bc1a-ca529d271632",
					"createDate": "2016-10-11 14:25:29",
					"modifyDate": "2016-10-11 14:25:29"
				}
			],
			"communityName": "伊顿公馆",
			"feedTopicName": "请客吃饭"
		}, {
			"id": "41f8ff24-2bc7-4753-bb08-509147e0667d",
			"createDate": "2016-10-11 14:23:46",
			"modifyDate": "2016-10-11 14:23:46",
			"status": "normal",
			"violateType": null,
			"title": null,
			"content": "null",
			"url": null,
			"member": {
				"id": "dd459809-cf00-4b71-bb6c-4c510172b738",
				"createDate": "2016-10-11 08:12:47",
				"modifyDate": "2016-11-22 10:51:30",
				"password": "dc483e80a7a0bd9ef71d8cf973673924",
				"nickName": "undefined",
				"avatar": "http://fjlonge.oss-cn-hangzhou.aliyuncs.com/upload/leProperty/image/201610/3738b1ef-85f1-48c2-bf3c-6cb3d9c59d28.jpg",
				"sex": "female",
				"birthday": "1990-01-01",
				"phone": "13859002783",
				"name": "$*xhf",
				"role": "relatives",
				"loginTime": null,
				"system": null,
				"auth": null,
				"wechatId": null,
				"machineCode": "77bd0d3ff31f55bd0eb1c93539ccacdf",
				"room": {
					"id": "1",
					"createDate": "2016-09-06 09:07:47",
					"modifyDate": "2016-11-14 10:23:19",
					"num": "66",
					"code": "wuye",
					"name": "物业中心",
					"area": null,
					"elevator": "t2",
					"buildName": "物业中心",
					"communityName": "伊顿公馆"
				},
				"email": null,
				"ryToken": "fBUEiojj5U4ux4Y9D//XkyhkyD+1Upp/sh64gpFkOYAdfVwtKaBeyiQ0/4DB/diqqY5k6l3dVSeG6vfHj0L9UzgdMyDYrsM0W+nijGLzcVftDNUWXnH1CfDEb8Gu1uNj0u2IhZx35rc=",
				"roomName": "物业中心",
				"communityName": "伊顿公馆"
			},
			"headPhoto": "http://fjlonge.oss-cn-hangzhou.aliyuncs.com/upload/leProperty/image/201610/d4108ca2-3f98-440a-8edb-e4557aec6ea6.jpg",
			"nickName": "undefined",
			"userGroup": "householder",
			"likeNum": 0,
			"commentNum": 0,
			"complainNum": 0,
			"like": true,
			"comment": true,
			"feedTopic": {
				"id": "78d1a758-52df-4609-921d-de4fcc43be73",
				"createDate": "2016-10-09 17:03:18",
				"modifyDate": "2016-10-09 17:03:18",
				"type": "normal",
				"name": "请客吃饭",
				"style": "吃饭",
				"status": "show",
				"community": {
					"id": "1",
					"createDate": "2016-08-10 10:46:22",
					"modifyDate": "2016-08-10 10:46:24",
					"name": "伊顿公馆",
					"propertyName": "茂基物业"
				},
				"communityName": "伊顿公馆"
			},
			"isTop": null,
			"feedImgs": [
				{
					"id": "c8ebd93e-7c51-4b79-acb4-8cd45fc71ea5",
					"createDate": "2016-10-11 14:23:46",
					"modifyDate": "2016-10-11 14:23:46"
				}
			],
			"communityName": "伊顿公馆",
			"feedTopicName": "请客吃饭"
		}, {
			"id": "65b23a1a-0146-4f6a-a176-d2ae2dc2c238",
			"createDate": "2016-10-11 09:29:00",
			"modifyDate": "2016-10-11 09:29:00",
			"status": "normal",
			"violateType": null,
			"title": null,
			"content": "试试两张图片",
			"url": null,
			"member": {
				"id": "dd459809-cf00-4b71-bb6c-4c510172b738",
				"createDate": "2016-10-11 08:12:47",
				"modifyDate": "2016-11-22 10:51:30",
				"password": "dc483e80a7a0bd9ef71d8cf973673924",
				"nickName": "undefined",
				"avatar": "http://fjlonge.oss-cn-hangzhou.aliyuncs.com/upload/leProperty/image/201610/3738b1ef-85f1-48c2-bf3c-6cb3d9c59d28.jpg",
				"sex": "female",
				"birthday": "1990-01-01",
				"phone": "13859002783",
				"name": "$*xhf",
				"role": "relatives",
				"loginTime": null,
				"system": null,
				"auth": null,
				"wechatId": null,
				"machineCode": "77bd0d3ff31f55bd0eb1c93539ccacdf",
				"room": {
					"id": "1",
					"createDate": "2016-09-06 09:07:47",
					"modifyDate": "2016-11-14 10:23:19",
					"num": "66",
					"code": "wuye",
					"name": "物业中心",
					"area": null,
					"elevator": "t2",
					"buildName": "物业中心",
					"communityName": "伊顿公馆"
				},
				"email": null,
				"ryToken": "fBUEiojj5U4ux4Y9D//XkyhkyD+1Upp/sh64gpFkOYAdfVwtKaBeyiQ0/4DB/diqqY5k6l3dVSeG6vfHj0L9UzgdMyDYrsM0W+nijGLzcVftDNUWXnH1CfDEb8Gu1uNj0u2IhZx35rc=",
				"roomName": "物业中心",
				"communityName": "伊顿公馆"
			},
			"headPhoto": "http://fjlonge.oss-cn-hangzhou.aliyuncs.com/upload/leProperty/image/201610/d4108ca2-3f98-440a-8edb-e4557aec6ea6.jpg",
			"nickName": "沙卡拉卡",
			"userGroup": "householder",
			"likeNum": 0,
			"commentNum": 0,
			"complainNum": 0,
			"like": true,
			"comment": true,
			"feedTopic": {
				"id": "78d1a758-52df-4609-921d-de4fcc43be73",
				"createDate": "2016-10-09 17:03:18",
				"modifyDate": "2016-10-09 17:03:18",
				"type": "normal",
				"name": "请客吃饭",
				"style": "吃饭",
				"status": "show",
				"community": {
					"id": "1",
					"createDate": "2016-08-10 10:46:22",
					"modifyDate": "2016-08-10 10:46:24",
					"name": "伊顿公馆",
					"propertyName": "茂基物业"
				},
				"communityName": "伊顿公馆"
			},
			"isTop": null,
			"feedImgs": [
				{
					"id": "a578cc74-a8fe-454f-9b31-12b9896de6e7",
					"createDate": "2016-10-11 09:29:00",
					"modifyDate": "2016-10-11 09:29:00"
				}, {
					"id": "117a40d1-2efd-44f2-b3ef-b7a660850480",
					"createDate": "2016-10-11 09:29:00",
					"modifyDate": "2016-10-11 09:29:00"
				}
			],
			"communityName": "伊顿公馆",
			"feedTopicName": "请客吃饭"
		}, {
			"id": "840c5bcf-033a-4b75-a717-e03131ded5ad",
			"createDate": "2016-10-11 09:27:08",
			"modifyDate": "2016-10-11 09:27:08",
			"status": "normal",
			"violateType": null,
			"title": null,
			"content": "有事请拨110",
			"url": null,
			"member": {
				"id": "dd459809-cf00-4b71-bb6c-4c510172b738",
				"createDate": "2016-10-11 08:12:47",
				"modifyDate": "2016-11-22 10:51:30",
				"password": "dc483e80a7a0bd9ef71d8cf973673924",
				"nickName": "undefined",
				"avatar": "http://fjlonge.oss-cn-hangzhou.aliyuncs.com/upload/leProperty/image/201610/3738b1ef-85f1-48c2-bf3c-6cb3d9c59d28.jpg",
				"sex": "female",
				"birthday": "1990-01-01",
				"phone": "13859002783",
				"name": "$*xhf",
				"role": "relatives",
				"loginTime": null,
				"system": null,
				"auth": null,
				"wechatId": null,
				"machineCode": "77bd0d3ff31f55bd0eb1c93539ccacdf",
				"room": {
					"id": "1",
					"createDate": "2016-09-06 09:07:47",
					"modifyDate": "2016-11-14 10:23:19",
					"num": "66",
					"code": "wuye",
					"name": "物业中心",
					"area": null,
					"elevator": "t2",
					"buildName": "物业中心",
					"communityName": "伊顿公馆"
				},
				"email": null,
				"ryToken": "fBUEiojj5U4ux4Y9D//XkyhkyD+1Upp/sh64gpFkOYAdfVwtKaBeyiQ0/4DB/diqqY5k6l3dVSeG6vfHj0L9UzgdMyDYrsM0W+nijGLzcVftDNUWXnH1CfDEb8Gu1uNj0u2IhZx35rc=",
				"roomName": "物业中心",
				"communityName": "伊顿公馆"
			},
			"headPhoto": "http://fjlonge.oss-cn-hangzhou.aliyuncs.com/upload/leProperty/image/201610/d4108ca2-3f98-440a-8edb-e4557aec6ea6.jpg",
			"nickName": "沙卡拉卡",
			"userGroup": "householder",
			"likeNum": 0,
			"commentNum": 0,
			"complainNum": 0,
			"like": true,
			"comment": true,
			"feedTopic": {
				"id": "78d1a758-52df-4609-921d-de4fcc43be73",
				"createDate": "2016-10-09 17:03:18",
				"modifyDate": "2016-10-09 17:03:18",
				"type": "normal",
				"name": "请客吃饭",
				"style": "吃饭",
				"status": "show",
				"community": {
					"id": "1",
					"createDate": "2016-08-10 10:46:22",
					"modifyDate": "2016-08-10 10:46:24",
					"name": "伊顿公馆",
					"propertyName": "茂基物业"
				},
				"communityName": "伊顿公馆"
			},
			"isTop": null,
			"feedImgs": [
				{
					"id": "034e47a7-684d-48e4-8872-924487577dbc",
					"createDate": "2016-10-11 09:27:08",
					"modifyDate": "2016-10-11 09:27:08"
				}
			],
			"communityName": "伊顿公馆",
			"feedTopicName": "请客吃饭"
		}, {
			"id": "2f5c5883-4791-4206-bdef-b482fb980974",
			"createDate": "2016-10-11 08:35:04",
			"modifyDate": "2016-10-11 08:35:04",
			"status": "normal",
			"violateType": null,
			"title": null,
			"content": "帅气！",
			"url": null,
			"member": {
				"id": "dd459809-cf00-4b71-bb6c-4c510172b738",
				"createDate": "2016-10-11 08:12:47",
				"modifyDate": "2016-11-22 10:51:30",
				"password": "dc483e80a7a0bd9ef71d8cf973673924",
				"nickName": "undefined",
				"avatar": "http://fjlonge.oss-cn-hangzhou.aliyuncs.com/upload/leProperty/image/201610/3738b1ef-85f1-48c2-bf3c-6cb3d9c59d28.jpg",
				"sex": "female",
				"birthday": "1990-01-01",
				"phone": "13859002783",
				"name": "$*xhf",
				"role": "relatives",
				"loginTime": null,
				"system": null,
				"auth": null,
				"wechatId": null,
				"machineCode": "77bd0d3ff31f55bd0eb1c93539ccacdf",
				"room": {
					"id": "1",
					"createDate": "2016-09-06 09:07:47",
					"modifyDate": "2016-11-14 10:23:19",
					"num": "66",
					"code": "wuye",
					"name": "物业中心",
					"area": null,
					"elevator": "t2",
					"buildName": "物业中心",
					"communityName": "伊顿公馆"
				},
				"email": null,
				"ryToken": "fBUEiojj5U4ux4Y9D//XkyhkyD+1Upp/sh64gpFkOYAdfVwtKaBeyiQ0/4DB/diqqY5k6l3dVSeG6vfHj0L9UzgdMyDYrsM0W+nijGLzcVftDNUWXnH1CfDEb8Gu1uNj0u2IhZx35rc=",
				"roomName": "物业中心",
				"communityName": "伊顿公馆"
			},
			"headPhoto": "http://fjlonge.oss-cn-hangzhou.aliyuncs.com/upload/leProperty/image/201610/d4108ca2-3f98-440a-8edb-e4557aec6ea6.jpg",
			"nickName": "沙卡拉卡",
			"userGroup": "householder",
			"likeNum": 0,
			"commentNum": 0,
			"complainNum": 0,
			"like": true,
			"comment": true,
			"feedTopic": {
				"id": "78d1a758-52df-4609-921d-de4fcc43be73",
				"createDate": "2016-10-09 17:03:18",
				"modifyDate": "2016-10-09 17:03:18",
				"type": "normal",
				"name": "请客吃饭",
				"style": "吃饭",
				"status": "show",
				"community": {
					"id": "1",
					"createDate": "2016-08-10 10:46:22",
					"modifyDate": "2016-08-10 10:46:24",
					"name": "伊顿公馆",
					"propertyName": "茂基物业"
				},
				"communityName": "伊顿公馆"
			},
			"isTop": null,
			"feedImgs": [
				{
					"id": "1ecfdc03-4cfd-4da4-ae66-a6964ef2dac6",
					"createDate": "2016-10-11 08:35:04",
					"modifyDate": "2016-10-11 08:35:04"
				}
			],
			"communityName": "伊顿公馆",
			"feedTopicName": "请客吃饭"
		}, {
			"id": "75d8aac0-3f5d-4ec9-bad8-78dd3f9e0219",
			"createDate": "2016-10-10 20:55:40",
			"modifyDate": "2016-10-10 20:55:40",
			"status": "normal",
			"violateType": null,
			"title": null,
			"content": "开饭了",
			"url": null,
			"member": {
				"id": "a6aa9089-4f9c-4fae-8e7f-47d211d5c9d6",
				"createDate": "2016-10-10 17:17:38",
				"modifyDate": "2016-11-28 15:35:09",
				"password": "dc483e80a7a0bd9ef71d8cf973673924",
				"nickName": "马云",
				"avatar": "http://fjlonge.oss-cn-hangzhou.aliyuncs.com/upload/leProperty/image/201610/b09a4d27-123b-446c-bfed-ef47f97b4c66.jpg",
				"sex": "male",
				"birthday": "1990-01-01",
				"phone": "15750845067",
				"name": "H",
				"role": "relatives",
				"loginTime": null,
				"system": null,
				"auth": null,
				"wechatId": null,
				"machineCode": "2302340d07f2b20da51da2cf1a3e3721",
				"room": {
					"id": "1",
					"createDate": "2016-09-06 09:07:47",
					"modifyDate": "2016-11-14 10:23:19",
					"num": "66",
					"code": "wuye",
					"name": "物业中心",
					"area": null,
					"elevator": "t2",
					"buildName": "物业中心",
					"communityName": "伊顿公馆"
				},
				"email": null,
				"ryToken": "GG7A/kkGKpUtD7BWc5ZqqxEz8bbjE00hXTHuvcDvryqbzYFsdl0Q7tgYI/yCWl1AJo/1xTsjJ7cWJtSaojuEsL6jMODOJUGW0J6fgCTAxvfayM86YREWV1W0ytz4946L5eEPPKmHC4k=",
				"roomName": "物业中心",
				"communityName": "伊顿公馆"
			},
			"headPhoto": "http://fjlonge.oss-cn-hangzhou.aliyuncs.com/upload/leProperty/image/201610/d966ee52-f309-414f-a40d-9de2f8b588f6.jpg",
			"nickName": "尚帅",
			"userGroup": "householder",
			"likeNum": 0,
			"commentNum": 0,
			"complainNum": 0,
			"like": true,
			"comment": true,
			"feedTopic": {
				"id": "78d1a758-52df-4609-921d-de4fcc43be73",
				"createDate": "2016-10-09 17:03:18",
				"modifyDate": "2016-10-09 17:03:18",
				"type": "normal",
				"name": "请客吃饭",
				"style": "吃饭",
				"status": "show",
				"community": {
					"id": "1",
					"createDate": "2016-08-10 10:46:22",
					"modifyDate": "2016-08-10 10:46:24",
					"name": "伊顿公馆",
					"propertyName": "茂基物业"
				},
				"communityName": "伊顿公馆"
			},
			"isTop": null,
			"feedImgs": [
				{
					"id": "10ada3c4-6a40-4755-b272-0b1a1566a8f0",
					"createDate": "2016-10-10 20:55:40",
					"modifyDate": "2016-10-10 20:55:40"
				}
			],
			"communityName": "伊顿公馆",
			"feedTopicName": "请客吃饭"
		}, {
			"id": "9f93fbeb-e37f-44b9-8874-a82bed949dd6",
			"createDate": "2016-10-10 17:28:10",
			"modifyDate": "2016-10-10 17:28:10",
			"status": "normal",
			"violateType": null,
			"title": null,
			"content": "LOL咯哦哦",
			"url": null,
			"member": {
				"id": "a6aa9089-4f9c-4fae-8e7f-47d211d5c9d6",
				"createDate": "2016-10-10 17:17:38",
				"modifyDate": "2016-11-28 15:35:09",
				"password": "dc483e80a7a0bd9ef71d8cf973673924",
				"nickName": "马云",
				"avatar": "http://fjlonge.oss-cn-hangzhou.aliyuncs.com/upload/leProperty/image/201610/b09a4d27-123b-446c-bfed-ef47f97b4c66.jpg",
				"sex": "male",
				"birthday": "1990-01-01",
				"phone": "15750845067",
				"name": "H",
				"role": "relatives",
				"loginTime": null,
				"system": null,
				"auth": null,
				"wechatId": null,
				"machineCode": "2302340d07f2b20da51da2cf1a3e3721",
				"room": {
					"id": "1",
					"createDate": "2016-09-06 09:07:47",
					"modifyDate": "2016-11-14 10:23:19",
					"num": "66",
					"code": "wuye",
					"name": "物业中心",
					"area": null,
					"elevator": "t2",
					"buildName": "物业中心",
					"communityName": "伊顿公馆"
				},
				"email": null,
				"ryToken": "GG7A/kkGKpUtD7BWc5ZqqxEz8bbjE00hXTHuvcDvryqbzYFsdl0Q7tgYI/yCWl1AJo/1xTsjJ7cWJtSaojuEsL6jMODOJUGW0J6fgCTAxvfayM86YREWV1W0ytz4946L5eEPPKmHC4k=",
				"roomName": "物业中心",
				"communityName": "伊顿公馆"
			},
			"headPhoto": "http://fjlonge.oss-cn-hangzhou.aliyuncs.com/upload/leProperty/image/201610/50660a69-d97b-4481-aa31-9dda66ff78c7.jpg",
			"nickName": "尚帅",
			"userGroup": "householder",
			"likeNum": 0,
			"commentNum": 0,
			"complainNum": 0,
			"like": true,
			"comment": true,
			"feedTopic": {
				"id": "78d1a758-52df-4609-921d-de4fcc43be73",
				"createDate": "2016-10-09 17:03:18",
				"modifyDate": "2016-10-09 17:03:18",
				"type": "normal",
				"name": "请客吃饭",
				"style": "吃饭",
				"status": "show",
				"community": {
					"id": "1",
					"createDate": "2016-08-10 10:46:22",
					"modifyDate": "2016-08-10 10:46:24",
					"name": "伊顿公馆",
					"propertyName": "茂基物业"
				},
				"communityName": "伊顿公馆"
			},
			"isTop": null,
			"feedImgs": [
				{
					"id": "bd70135e-e64f-498b-8d06-c845d2655a38",
					"createDate": "2016-10-10 17:28:10",
					"modifyDate": "2016-10-10 17:28:10"
				}, {
					"id": "e52dbdd6-d077-4bda-96b2-28ee3d9e3375",
					"createDate": "2016-10-10 17:28:10",
					"modifyDate": "2016-10-10 17:28:10"
				}, {
					"id": "8bbee7b3-0c48-4e6b-9c7e-476b09800319",
					"createDate": "2016-10-10 17:28:10",
					"modifyDate": "2016-10-10 17:28:10"
				}, {
					"id": "43928fe7-035b-451f-a0cf-35ef0d443d2e",
					"createDate": "2016-10-10 17:28:10",
					"modifyDate": "2016-10-10 17:28:10"
				}
			],
			"communityName": "伊顿公馆",
			"feedTopicName": "请客吃饭"
		}
	],
	"total": 18,
	"pageable": {
		"pageNumber": 2,
		"pageSize": 10,
		"searchProperty": null,
		"searchValue": null,
		"orderProperty": null,
		"orderDirection": null,
		"filters": [],
		"orders": [
			{
				"property": "createDate",
				"direction": "desc"
			}
		]
	},
	"filters": [],
	"totalPages": 2,
	"pageSize": 10,
	"pageNumber": 2,
	"orders": [
		{
			"property": "createDate",
			"direction": "desc"
		}
	],
	"searchProperty": null,
	"searchValue": null,
	"orderProperty": null,
	"orderDirection": null
}